ChessDataAnalysyis
…
Jak widać wraz z większą ilością czasu gry rośnie liczba remisów. Jest to jaknajbardziej logiczne, gracze mają więcej czasu na analizę, planowanie i liczenie wariantów, po obu stronach popełniają mniej poważnych błędów przez co partia jest bardziej wyrównana. Widać również, że wygrane graczy z białymi i czarnymi figurami są na podobnym poziomie, to zjawisko wynika z charakterystyki analizowanego zestawu danych. Mamy tutaj do czynienia z najlepszymi graczami w konkretnych formatach czasowych na Lichess. Silniejsi i bardziej doświadczeni gracze są w stanie efektywnie korzytsać z obu stron planszy, co prowadzi do równomiernej dystrybucji zwycięstw.

Dla kontrastu dane dotyczące przeciętnych graczy Lichessa:

Sprawdzam czy któreś otwarcia pojawiają się częściej w poszczególnych formatach czasowych

data %>% group_by(opening_name) %>% count(sort = TRUE) #defensywne, w top 10 tylko dwa otwarcia 1.e4 tylko dwa mecze na 20000 z King's Knight Opening

# A tibble: 1,595 × 2
# Groups:   opening_name [1,595]
   opening_name                               n
   <chr>                                  <int>
 1 Indian Defense                           341
 2 Benoni Defense: Old Benoni               282
 3 Mieses Opening                           275
 4 Van't Kruijs Opening                     269
 5 Zukertort Opening: Kingside Fianchetto   242
 6 Queen's Pawn Game                        241
 7 Hungarian Opening                        222
 8 Zukertort Opening                        220
 9 Sicilian Defense: Closed                 213
10 Pirc Defense                             192
# ℹ 1,585 more rows
…
